%YAML 1.1
%TAG !u! tag:unity3d.com,2011:
--- !u!21 &2100000
Material:
  serializedVersion: 6
  m_ObjectHideFlags: 0
  m_CorrespondingSourceObject: {fileID: 0}
  m_PrefabInstance: {fileID: 0}
  m_PrefabAsset: {fileID: 0}
  m_Name: MyPoolWater
  m_Shader: {fileID: 4800000, guid: f625f9c13440d4e49bf26284e1c8c132, type: 3}
  m_ShaderKeywords: _ENABLEREFLECTIONS_ON
  m_LightmapFlags: 5
  m_EnableInstancingVariants: 0
  m_DoubleSidedGI: 0
  m_CustomRenderQueue: -1
  stringTagMap: {}
  disabledShaderPasses: []
  m_SavedProperties:
    serializedVersion: 3
    m_TexEnvs:
    - _BumpMap:
        m_Texture: {fileID: 0}
        m_Scale: {x: 1, y: 1}
        m_Offset: {x: 0, y: 0}
    - _DetailAlbedoMap:
        m_Texture: {fileID: 0}
        m_Scale: {x: 1, y: 1}
        m_Offset: {x: 0, y: 0}
    - _DetailMask:
        m_Texture: {fileID: 0}
        m_Scale: {x: 1, y: 1}
        m_Offset: {x: 0, y: 0}
    - _DetailNormalMap:
        m_Texture: {fileID: 0}
        m_Scale: {x: 1, y: 1}
        m_Offset: {x: 0, y: 0}
    - _EmissionMap:
        m_Texture: {fileID: 0}
        m_Scale: {x: 1, y: 1}
        m_Offset: {x: 0, y: 0}
    - _FoamTexture:
        m_Texture: {fileID: 2800000, guid: 199d83fd2aca7214481411272c61f368, type: 3}
        m_Scale: {x: 1, y: 1}
        m_Offset: {x: 0, y: 0}
    - _LargeWavesTexture:
        m_Texture: {fileID: 2800000, guid: 38a68f55943b5274d9269966a0a631ff, type: 3}
        m_Scale: {x: 1, y: 1}
        m_Offset: {x: 0, y: 0}
    - _MainTex:
        m_Texture: {fileID: 0}
        m_Scale: {x: 1, y: 1}
        m_Offset: {x: 0, y: 0}
    - _MediumWavesTexture:
        m_Texture: {fileID: 2800000, guid: 23bcf594ec017424e892a95b68f6b439, type: 3}
        m_Scale: {x: 1, y: 1}
        m_Offset: {x: 0, y: 0}
    - _MetallicGlossMap:
        m_Texture: {fileID: 0}
        m_Scale: {x: 1, y: 1}
        m_Offset: {x: 0, y: 0}
    - _NormalTexture:
        m_Texture: {fileID: 0}
        m_Scale: {x: 1, y: 1}
        m_Offset: {x: 0, y: 0}
    - _OcclusionMap:
        m_Texture: {fileID: 0}
        m_Scale: {x: 1, y: 1}
        m_Offset: {x: 0, y: 0}
    - _ParallaxMap:
        m_Texture: {fileID: 0}
        m_Scale: {x: 1, y: 1}
        m_Offset: {x: 0, y: 0}
    - _ReflectionTex:
        m_Texture: {fileID: 0}
        m_Scale: {x: 1, y: 1}
        m_Offset: {x: 0, y: 0}
    - _SmallWavesTexture:
        m_Texture: {fileID: 2800000, guid: 16aae366ec986ff4f8a63a5331ee7acb, type: 3}
        m_Scale: {x: 1, y: 1}
        m_Offset: {x: 0, y: 0}
    m_Floats:
    - _BumpScale: 1
    - _Cutoff: 0.5
    - _Density: 10
    - _DepthTransparency: 20
    - _DetailNormalMapScale: 1
    - _DistanceTilingFade: 1
    - _Distortion: 0.15
    - _DstBlend: 0
    - _EnableCustomFog: 0
    - _EnableReflections: 1
    - _Fade: 0.85
    - _FoamBlend: 0.3
    - _FoamContrast: 0.37
    - _FoamDistFade: 2.87
    - _FoamDistFalloff: 20.1
    - _FoamIntensity: 10
    - _FoamSpeed: -200
    - _FoamTiling: 5000
    - _FoamVisibility: 0.547
    - _FogDistance: 1000
    - _FogFade: 1.5
    - _FullTransparency: 0
    - _Gloss: 0.8
    - _Glossiness: 0.5
    - _LargeWaveRefraction: 1.53
    - _LargeWavesSpeed: 50
    - _LargeWavesTiling: 1000
    - _LightWrapping: 2
    - _LongTilingDistance: 1500
    - _MediumTilingDistance: 500
    - _MediumWaveRefraction: 1.77
    - _MediumWavesSpeed: -120
    - _MediumWavesTiling: 2000
    - _Metallic: 0
    - _Mode: 0
    - _NormalTiling: 1
    - _OcclusionStrength: 1
    - _Parallax: 0.02
    - _ReflectionIntensity: 0.436
    - _Refraction: 0.67
    - _RefractionDistance: 10
    - _RefractionFalloff: 1
    - _ShoreFade: 0.56
    - _ShoreTransparency: 0.5
    - _SmallWaveRrefraction: 1.16
    - _SmallWavesSpeed: 60
    - _SmallWavesTiling: 1000
    - _Specular: 2.5
    - _SrcBlend: 1
    - _UVSec: 0
    - _UnderwaterMode: 0
    - _UnderwaterTranspDist: 16.4
    - _UnderwaterTranspFalloff: 0.78
    - _WaveBlend: 0.77
    - _WaveFade: 1.19
    - _WaveSpeed: 40
    - _ZWrite: 1
    m_Colors:
    - _Color: {r: 1, g: 1, b: 1, a: 1}
    - _DeepWaterColor: {r: 0.01135381, g: 0.11889393, b: 0.1544118, a: 1}
    - _EmissionColor: {r: 0, g: 0, b: 0, a: 1}
    - _FoamColor: {r: 0.3823529, g: 0.3879758, b: 0.3879758, a: 1}
    - _FogColor: {r: 0.8014706, g: 0.8014706, b: 0.8014706, a: 1}
    - _MainColor: {r: 0, g: 1, b: 1, a: 1}
    - _SpecularColor: {r: 0.7205882, g: 0.7311851, b: 0.7311851, a: 1}
  m_BuildTextureStacks: []
